…
``` r
iris_recipe %>% 
  bake(testing(iris_split))
```

    ## # A tibble: 60 x 4
    ##    Sepal.Length Sepal.Width Petal.Width Species
    ##           <dbl>       <dbl>       <dbl> <fct>  
    ##  1      -0.916        1.06        -1.37 setosa 
    ##  2      -1.41         0.342       -1.37 setosa 
    ##  3      -0.545        2.01        -1.11 setosa 
    ##  4      -1.54         0.818       -1.24 setosa 
    ##  5      -0.545        1.53        -1.37 setosa 
    ##  6      -1.29         0.818       -1.37 setosa 
    ##  7      -0.0495       2.25        -1.37 setosa 
    ##  8      -0.173        1.77        -1.24 setosa 
    ##  9      -0.545        0.818       -1.37 setosa 
    ## 10      -0.916        1.53        -1.11 setosa 
    ## # ... with 50 more rows
…
